TIME,CPU
1,86.0
2,76.5
3,73.3
4,57.0
5,45.6
6,38.0
7,32.5
8,28.6
9,25.4
10,22.9
11,20.8
12,19.0
13,17.6
14,16.4
15,15.4
16,14.4
17,13.5
18,12.8
19,12.1
20,11.5
21,11.0
22,10.5
23,10.0
24, 9.6
25, 9.2
26, 8.9
27, 8.6
28, 8.3
29, 8.0
30, 7.7
31, 7.5
32, 7.2
33, 7.0
34, 6.8
35, 6.4
36, 6.2
37, 6.1
38, 5.9
39, 5.8
40, 5.6
41, 5.5
42, 5.4
43, 5.3
44, 5.2
45, 5.1
46, 5.0
47, 4.8
48, 4.8
49, 4.7
50, 4.6
51, 4.5
52, 4.4
53, 4.3
54, 4.3
55, 4.2
56, 4.1
57, 4.0
58, 4.0
59, 3.9
60, 3.8
61, 3.8
62, 3.7
63, 3.7
64, 3.6
65, 3.5
66, 3.5
67, 3.4
68, 3.4
69, 3.3
70, 3.3
71, 3.2
72, 3.2
73, 3.2
74, 3.1
75, 3.1
76, 3.0
77, 3.0
78, 3.0
79, 2.9
80, 2.9
81, 2.8
82, 2.8
83, 2.8
84, 2.7
85, 2.7
86, 2.7
87, 2.6
88, 2.6
89, 2.6
90, 2.6
91, 2.5
92, 2.5
93, 2.5
94, 2.5
95, 2.4
96, 2.4
97, 2.4
98, 2.4
99, 2.3
100, 2.3
101, 2.3
102, 2.3
103, 2.2
104, 2.2
105, 2.2
106, 2.2
107, 2.2
108, 2.1
109, 2.1
110, 2.1
111, 2.1
112, 2.1
113, 2.0
114, 2.0
115, 2.0
116, 2.0
117, 2.0
118, 1.9
119, 1.9
120, 1.9
121, 1.9
122, 1.9
123, 1.9
124, 1.8
125, 1.8
126, 1.8
127, 1.8
128, 1.8
129, 1.8
130, 1.8
131, 1.8
132, 1.8
133, 1.7
134, 1.7
135, 1.7
136, 1.7
137, 1.7
138, 1.7
139, 1.7
140, 1.7
141, 1.6
142, 1.6
143, 1.6
144, 1.6
145, 1.6
146, 1.6
147, 1.6
148, 1.6
149, 1.6
150, 1.6
151, 1.5
152, 1.5
153, 1.5
154, 1.5
155, 1.5
156, 1.5
157, 1.5
158, 1.5
159, 1.5
160, 1.5
